1.98277 -21.2124
0.991306 -20.3567
0.924722 -20.2924
1.02853 -20.393
1.02809 -20.3921
1.10892 -20.4701
0.999848 -20.3653
0.966989 -20.3311
0.952278 -20.3175
0.952112 -20.3171
1.0579 -20.4206
0.996035 -20.3607
0.997651 -20.3623
1.0518 -20.4141
0.97938 -20.3442
1.02037 -20.3852
1.04325 -20.4072
1.01839 -20.3824
1.03979 -20.4034
0.989606 -20.3549
1.01884 -20.3807
1.06114 -20.428
1.00087 -20.366
1.0121 -20.3775
1.00429 -20.3704
1.07218 -20.4347
0.97486 -20.3447
0.943029 -20.3097
0.970656 -20.3376
0.920727 -20.2899
1.0015 -20.3662
1.01457 -20.3809
0.945629 -20.3128
0.936961 -20.3021
1.01863 -20.3824
1.05182 -20.4151
1.03604 -20.3993
1.01264 -20.377
1.04389 -20.4057
0.96314 -20.3318
0.999354 -20.3665
1.04076 -20.4039
1.05579 -20.419
1.00735 -20.3733
0.952421 -20.3175
0.998195 -20.3611
1.03359 -20.3998
1.0274 -20.393
1.00559 -20.3718
0.99881 -20.3653
1.03939 -20.4041
1.01046 -20.3738
0.97431 -20.34
0.964825 -20.3282
1.00496 -20.3712
1.05704 -20.4188
1.00895 -20.3758
0.95783 -20.324
1.03747 -20.4061
1.03268 -20.4006
1.04374 -20.4091
0.995531 -20.3611
1.01825 -20.3836
1.00821 -20.3719
0.973973 -20.3392
1.04331 -20.4067
1.0344 -20.3954
1.02067 -20.3832
0.96142 -20.3241
1.03286 -20.3963
1.02751 -20.3926
1.01588 -20.3841
1.03662 -20.4003
1.04553 -20.413
1.0369 -20.402
1.04725 -20.413
0.970247 -20.3361
0.967456 -20.3331
1.02547 -20.388
1.0691 -20.4339
1.05048 -20.4123
1.00935 -20.3771
1.01154 -20.3744
1.04738 -20.4093
1.07253 -20.4379
1.01456 -20.3802
1.03709 -20.4033
0.939307 -20.3071
1.0069 -20.3707
1.06809 -20.4322
1.02541 -20.3906
1.02463 -20.391
1.00559 -20.374
1.06318 -20.4224
0.952155 -20.3188
1.0498 -20.4147
0.987683 -20.3558
1.06721 -20.43
1.03521 -20.4008
0.99475 -20.3613
1.01421 -20.3825
1.01644 -20.379
1.06106 -20.4269
1.01654 -20.3794
0.997932 -20.3675
1.03169 -20.3998
1.02134 -20.3884
0.966138 -20.3335
1.01152 -20.3763
0.915197 -20.2869
1.01869 -20.3834
1.00566 -20.3703
1.05539 -20.418
1.01013 -20.3785
1.01532 -20.3776
0.997341 -20.3603
1.06442 -20.4289
1.00624 -20.3715
1.069 -20.4313
1.04271 -20.4046
1.01844 -20.3839
1.03713 -20.4005
1.0359 -20.4026
1.0598 -20.4259
1.03247 -20.3979
1.02386 -20.3892
1.02896 -20.3924
0.999144 -20.3651
0.99256 -20.3596
1.03968 -20.4038
1.04179 -20.409
0.960841 -20.3281
1.0408 -20.4051
1.0133 -20.3789
0.985069 -20.3488
1.00762 -20.3733
1.01167 -20.3734
1.0307 -20.3958
1.05455 -20.4183
0.983168 -20.3498
1.03911 -20.4064
0.986208 -20.3536
1.00025 -20.3647
1.03 -20.3961
1.06569 -20.4313
0.976638 -20.3431
1.06014 -20.4268
1.01264 -20.378
0.974703 -20.3435
1.04203 -20.4113
1.02158 -20.3876
1.07688 -20.4393
1.01066 -20.3749
0.966581 -20.334
1.0792 -20.4365
1.04263 -20.4055
1.02364 -20.3893
0.991467 -20.3568
1.03474 -20.3987
1.07018 -20.4349
1.00007 -20.3615
0.998414 -20.3642
1.01809 -20.3837
1.01817 -20.3848
1.03549 -20.4021
1.06211 -20.4254
0.989508 -20.3545
1.02382 -20.3892
1.0724 -20.4347
1.06555 -20.4247
1.00657 -20.3693
1.0217 -20.3846
1.02044 -20.382
1.05581 -20.4187
1.08643 -20.4492
1.01385 -20.3785
1.04268 -20.4093
1.01643 -20.3839
1.01791 -20.383
0.978834 -20.3464
1.0411 -20.405
1.06019 -20.425
0.998766 -20.3617
0.964162 -20.3311
1.03158 -20.3963
1.06303 -20.427
0.995308 -20.3619
0.99605 -20.3605
1.04657 -20.4101
0.993641 -20.3573
1.02227 -20.3864
1.02925 -20.3959
1.0165 -20.3809
1.04446 -20.4084
1.01086 -20.3783
1.01308 -20.3776
1.01798 -20.3789
0.99898 -20.3631
1.0347 -20.397
1.01489 -20.3792
